<?xml version="1.0" encoding="UTF-8" standalone="no"?> <!-- Created with Vectornator for iOS (http://vectornator.io/) --><!DOCTYPE svg PUBLIC "-//W3C//DTD SVG 1.1//EN" "http://www.w3.org/Graphics/SVG/1.1/DTD/svg11.dtd">
<svg height="100%" xml:space="preserve" style="fill-rule:nonzero;clip-rule:evenodd;stroke-linecap:round;stroke-linejoin:round;" width="100%" version="1.1" viewBox="0 0 240 64">
<defs/>
<path opacity="1" fill="#231f20" d="M19.7+40C19.6+40+19.4+40+19.3+39.9L1.6+32.4C1.2+32.3+1+31.9+1+31.5C1+31.1+1.3+30.8+1.6+30.6L61.7+7.3C62.2+7.1+62.7+7.3+62.9+7.7C63.1+8.1+63+8.7+62.6+8.9L20.2+39.9C20.1+40+19.9+40+19.7+40Z"/>
<path opacity="1" fill="#ffffff" d="M4.4+31.6L19.5+38.1L55.7+11.7"/>
<path opacity="1" fill="#231f20" d="M24.8+56.7C24.4+56.7+24+56.4+23.9+56L18.7+39.3C18.6+38.9+18.7+38.5+19.1+38.2L61.5+7.4C61.9+7.1+62.5+7.2+62.8+7.5C63.1+7.9+63.1+8.5+62.8+8.8L29.6+42.9L25.7+56.1C25.7+56.5+25.3+56.7+24.8+56.7C24.9+56.7+24.8+56.7+24.8+56.7Z"/>
<path fill="#ffffff" opacity="1" d="M20.8+39.5L24.9+52.6L27.9+42.2C27.9+42+28+41.9+28.1+41.8L53.7+15.6L20.8+39.5Z"/>
<path fill="#231f20" opacity="1" d="M52.2+52.4C52.1+52.4+52+52.4+51.9+52.3L28.5+43.3C28.2+43.2+28+42.9+27.9+42.6C27.8+42.3+27.9+41.9+28.2+41.7L61.3+7.6C61.6+7.3+62.1+7.2+62.5+7.4C62.9+7.6+63.1+8+63+8.5L53.2+51.7C53.1+52+53+52.2+52.7+52.3"/>
<path opacity="1" fill="#ffffff" d="M30.5+42.1L51.6+50.2L60.4+11.3L30.5+42.1Z"/>
<path fill="#231f20" d="M24.8+56.7C24.7+56.7+24.5+56.7+24.4+56.6C24+56.4+23.8+55.9+23.9+55.5L27.8+42.1C27.9+41.8+28.1+41.6+28.3+41.5C28.5+41.4+28.8+41.4+29.1+41.5L33.6+43.2C33.9+43.3+34.1+43.5+34.2+43.8C34.3+44.1+34.2+44.4+34.1+44.6L25.7+56.2C25.4+56.6+25.1+56.7+24.8+56.7Z" opacity="1"/>
<path fill="#ffffff" d="M29.4+43.6L27.3+50.8L31.9+44.6L29.4+43.6Z" opacity="1"/>
<g opacity="1">
<path d="M87.5892+43.2623C84.929+43.2037+82.7962+42.3248+81.1907+40.6255C79.5853+38.9263+78.6771+36.6529+78.4661+33.8052C78.3489+32.399+78.4603+30.7437+78.8001+28.8394C79.14+26.9351+79.7435+25.1802+80.6107+23.5748C81.4779+21.9693+82.5618+20.6333+83.8626+19.5669C86.0423+17.774+88.5501+16.9068+91.3861+16.9654C93.1321+17.0005+94.6585+17.4019+95.9652+18.1695C97.2718+18.9371+98.3177+20.0415+99.1029+21.483C99.888+22.9244+100.345+24.565+100.474+26.4048C100.568+27.7056+100.489+29.1851+100.237+30.8433C99.9847+32.5015+99.5218+34.0835+98.848+35.5894C98.1741+37.0953+97.304+38.4224+96.2376+39.5708C95.1712+40.7193+93.9144+41.6304+92.4671+42.3042C91.0198+42.9781+89.3939+43.2974+87.5892+43.2623ZM94.4446+26.3521C94.3275+23.4224+93.1907+21.899+91.0345+21.7818C89.3704+21.6998+87.9935+22.3589+86.9036+23.7593C85.8138+25.1597+85.0931+27.2251+84.7415+29.9556C84.5189+31.6431+84.4368+32.9498+84.4954+33.8755C84.6126+36.8521+85.7611+38.3814+87.9407+38.4634C89.3704+38.5337+90.6009+38.021+91.6321+36.9253C92.6634+35.8296+93.4075+34.2359+93.8646+32.1441C94.3216+30.0523+94.515+28.1216+94.4446+26.3521Z" opacity="1" fill="#231f20"/>
<path d="M103.112+42.9107L105.696+28.0044L103.024+28.0044L103.727+23.8912L106.399+23.8736L106.627+22.2037C106.92+20.1763+107.729+18.565+109.053+17.3697C110.471+16.104+112.317+15.483+114.59+15.5064C115.176+15.5064+116.131+15.6353+117.455+15.8931L117.016+20.2701C116.477+20.1294+116.02+20.0591+115.645+20.0591C114.789+20.0591+114.083+20.2554+113.527+20.648C112.97+21.0406+112.616+21.606+112.463+22.3443L112.2+23.8912L115.803+23.8912L115.1+28.0044L111.496+28.0044L108.912+42.9107L103.112+42.9107Z" opacity="1" fill="#231f20"/>
<path fill="#231f20" d="M116.736+42.9107L119.32+28.0044L116.648+28.0044L117.351+23.8912L120.023+23.8736L120.251+22.2037C120.544+20.1763+121.353+18.565+122.677+17.3697C124.095+16.104+125.941+15.483+128.214+15.5064C128.8+15.5064+129.755+15.6353+131.079+15.8931L130.64+20.2701C130.101+20.1294+129.644+20.0591+129.269+20.0591C128.413+20.0591+127.707+20.2554+127.151+20.648C126.594+21.0406+126.24+21.606+126.087+22.3443L125.824+23.8912L129.427+23.8912L128.724+28.0044L125.12+28.0044L122.536+42.9107L116.736+42.9107Z" opacity="1"/>
<path opacity="1" d="M147.868+33.4361C147.504+36.5181+146.596+38.9439+145.143+40.7134C143.69+42.483+141.78+43.3384+139.412+43.2798C137.537+43.233+136.096+42.4478+135.088+40.9244L134.368+42.9107L129.129+42.9107L133.823+15.9107L139.606+15.9107L137.725+25.4556C139.002+24.1548+140.426+23.5162+141.996+23.5396C143.86+23.563+145.313+24.2281+146.356+25.5347C147.399+26.8414+147.95+28.6197+148.008+30.8697C148.02+31.6197+147.991+32.3521+147.92+33.0669L147.868+33.4361ZM142.119+33.0845C142.213+32.3697+142.266+31.69+142.278+31.0455C142.278+29.1587+141.604+28.1744+140.256+28.0923C139.061+28.0455+138.059+28.5552+137.25+29.6216L135.879+37.2154C136.243+38.188+137.039+38.6861+138.27+38.7095C140.157+38.7681+141.346+37.5376+141.838+35.0181L142.084+33.4537L142.119+33.0845Z" fill="#231f20"/>
<path opacity="1" fill="#231f20" d="M155.814+42.9107L150.013+42.9107L154.689+15.9107L160.49+15.9107L155.814+42.9107Z"/>
<path d="M171.371+23.5396C173.071+23.563+174.541+23.9878+175.784+24.814C177.026+25.6402+177.937+26.7915+178.517+28.2681C179.097+29.7447+179.305+31.3853+179.141+33.19L179.106+33.5767C178.778+36.4947+177.694+38.8501+175.854+40.6431C174.014+42.4361+171.741+43.3091+169.034+43.2623C167.346+43.2388+165.887+42.8199+164.657+42.0054C163.426+41.191+162.515+40.0513+161.923+38.5865C161.331+37.1216+161.118+35.4927+161.282+33.6998C161.575+30.5826+162.644+28.0982+164.49+26.2466C166.335+24.3951+168.629+23.4927+171.371+23.5396ZM167.065+33.6998L167.012+34.7369C166.848+37.3501+167.645+38.6802+169.403+38.7271C171.676+38.7974+172.994+36.9517+173.358+33.19L173.428+31.5904C173.452+30.5357+173.255+29.6949+172.839+29.0679C172.423+28.441+171.811+28.1158+171.002+28.0923C169.936+28.0572+169.06+28.4937+168.374+29.4019C167.689+30.3101+167.252+31.7427+167.065+33.6998Z" opacity="1" fill="#231f20"/>
<path d="M189.671+38.7095C190.503+38.733+191.154+38.5015+191.622+38.0152C192.091+37.5289+192.39+36.899+192.519+36.1255L197.933+36.108C197.863+37.5025+197.45+38.7505+196.694+39.8521C195.938+40.9537+194.918+41.8062+193.635+42.4097C192.352+43.0132+190.978+43.2974+189.513+43.2623C186.982+43.2154+185.031+42.3042+183.66+40.5289C182.288+38.7535+181.732+36.4595+181.99+33.647L182.042+33.2251C182.253+31.3033+182.792+29.6011+183.66+28.1187C184.527+26.6363+185.666+25.4908+187.078+24.6822C188.491+23.8736+190.07+23.4927+191.816+23.5396C194.031+23.5865+195.78+24.2925+197.063+25.6578C198.346+27.023+198.964+28.8658+198.917+31.1861L193.503+31.1685C193.562+29.1529+192.841+28.1275+191.341+28.0923C189.302+28.022+188.13+29.7388+187.826+33.2427L187.667+35.0357L187.65+35.7037C187.65+37.6724+188.324+38.6744+189.671+38.7095Z" fill="#231f20" opacity="1"/>
<path fill="#231f20" opacity="1" d="M208.797+35.897L206.688+37.7251L205.791+42.9107L200.008+42.9107L204.702+15.8931L210.485+15.8931L207.813+30.3072L208.516+29.4634L213.772+23.8912L221.102+23.8912L213.016+31.9771L217.92+42.9107L211.575+42.9107L208.797+35.897Z"/>
<path fill="#231f20" opacity="1" d="M230.753+37.4615C230.906+36.688+230.308+36.108+228.96+35.7212L227.712+35.4048C225.673+34.8658+224.179+34.1099+223.23+33.1373C222.281+32.1646+221.835+31.0103+221.894+29.6744C221.953+27.8462+222.764+26.3609+224.329+25.2183C225.893+24.0757+227.8+23.5162+230.05+23.5396C232.288+23.563+234.102+24.1314+235.491+25.2447C236.879+26.358+237.585+27.858+237.609+29.7447L231.843+29.7271C231.89+28.2271+231.228+27.4771+229.857+27.4771C229.271+27.4771+228.726+27.6499+228.222+27.9956C227.718+28.3414+227.419+28.8013+227.326+29.3755C227.126+30.3248+227.964+30.9751+229.839+31.3267C231.468+31.7134+232.728+32.1617+233.619+32.6714C234.509+33.1812+235.189+33.8111+235.658+34.5611C236.126+35.3111+236.343+36.2134+236.308+37.2681C236.273+38.4165+235.898+39.4419+235.183+40.3443C234.468+41.2466+233.434+41.9673+232.08+42.5064C230.727+43.0455+229.259+43.2974+227.677+43.2623C226.306+43.2505+225.032+42.9634+223.854+42.4009C222.676+41.8384+221.756+41.0738+221.094+40.107C220.432+39.1402+220.089+38.0298+220.066+36.7759L225.445+36.8111C225.468+38.4986+226.312+39.3306+227.976+39.3072C228.691+39.3072+229.3+39.146+229.804+38.8238C230.308+38.5015+230.624+38.0474+230.753+37.4615Z"/>
</g>
</svg>
